<svg width="16" height="16" xmlns="http://www.w3.org/2000/svg">
  <style>
    path { fill: #191b1d; }
    @media (prefers-color-scheme: dark) {
      path { fill: #f6f6f6; }
    }
  </style>
  <path fill-rule="evenodd" d="M0 0h16v16H0z"/>
</svg>
